[gd_scene load_steps=5 format=2]

[ext_resource path="res://scripts/ding.gd" type="Script" id=1]

[sub_resource type="Gradient" id=1]
colors = PoolColorArray( 1, 1, 1, 1, 1, 1, 1, 0 )

[sub_resource type="GradientTexture" id=2]
gradient = SubResource( 1 )
width = 10

[sub_resource type="ParticlesMaterial" id=3]
emission_shape = 1
emission_sphere_radius = 12.77
flag_disable_z = true
spread = 180.0
gravity = Vector3( 0, 0, 0 )
initial_velocity = 100.0
initial_velocity_random = 1.0
angular_velocity = 1.0
orbit_velocity = 0.0
orbit_velocity_random = 0.0
scale = 50.0
scale_random = 1.0
color_ramp = SubResource( 2 )

[node name="ding" type="Particles2D"]
scale = Vector2( 5, 5 )
emitting = false
amount = 200
one_shot = true
speed_scale = 0.2
explosiveness = 1.0
local_coords = false
process_material = SubResource( 3 )
script = ExtResource( 1 )
timeout = 6.0
