[gd_scene load_steps=5 format=2]

[ext_resource path="res://scripts/planet.gd" type="Script" id=1]
[ext_resource path="res://assets/art/planet_black.png" type="Texture" id=2]
[ext_resource path="res://assets/art/planet_white.png" type="Texture" id=3]
[ext_resource path="res://assets/art/planet_shadow.png" type="Texture" id=4]

[node name="planet" type="Node2D"]
script = ExtResource( 1 )

[node name="TextureButton" type="TextureButton" parent="."]
margin_left = -2000.0
margin_top = -2000.0
margin_right = 2000.0
margin_bottom = 2000.0
texture_normal = ExtResource( 2 )
__meta__ = {
"_edit_use_anchors_": false
}

[node name="Sprite" type="Sprite" parent="."]
texture = ExtResource( 3 )

[node name="Sprite2" type="Sprite" parent="."]
texture = ExtResource( 4 )

[node name="VisibilityNotifier2D" type="VisibilityNotifier2D" parent="."]
rect = Rect2( -1000, -1000, 2000, 2000 )
[connection signal="mouse_entered" from="TextureButton" to="." method="_on_TextureButton_mouse_entered"]
[connection signal="mouse_exited" from="TextureButton" to="." method="_on_TextureButton_mouse_exited"]
[connection signal="screen_entered" from="VisibilityNotifier2D" to="." method="enter_screen"]
[connection signal="screen_exited" from="VisibilityNotifier2D" to="." method="exit_screen"]
