[gd_scene load_steps=4 format=2]

[sub_resource type="Gradient" id=1]
offsets = PoolRealArray( 0, 0.734317, 1 )
colors = PoolColorArray( 0.7, 0.7, 1, 1, 0.975431, 0.975431, 1, 0.73, 1, 1, 1, 0 )

[sub_resource type="GradientTexture" id=2]
gradient = SubResource( 1 )
width = 4

[sub_resource type="ParticlesMaterial" id=3]
emission_shape = 1
emission_sphere_radius = 20.0
flag_disable_z = true
spread = 180.0
gravity = Vector3( 0, 0, 0 )
initial_velocity = 200.0
initial_velocity_random = 1.0
orbit_velocity = 0.0
orbit_velocity_random = 0.0
tangential_accel = 5.0
tangential_accel_random = 1.0
angle = 360.0
angle_random = 1.0
scale = 28.0
scale_random = 1.0
color_ramp = SubResource( 2 )

[node name="Spark" type="Particles2D"]
scale = Vector2( 3, 3 )
emitting = false
amount = 100
lifetime = 0.06
one_shot = true
speed_scale = 0.03
explosiveness = 0.95
local_coords = false
process_material = SubResource( 3 )
